^C:\USERS\8470P\DOCUMENTS\DIT\YEAR 2\DSAL\CA2\CA2\DEBUG\CA2.EXE.EMBED.MANIFEST.RES|C:\USERS\8470P\DOCUMENTS\DIT\YEAR 2\DSAL\CA2\CA2\DEBUG\MAIN.OBJ|C:\USERS\8470P\DOCUMENTS\DIT\YEAR 2\DSAL\CA2\CA2\DEBUG\TOOL.OBJ|C:\USERS\8470P\DOCUMENTS\DIT\YEAR 2\DSAL\CA2\CA2\DEBUG\WARE.OBJ
C:\USERS\8470P\DOCUMENTS\DIT\YEAR 2\DSAL\CA2\DEBUG\CA2.ILK
C:\USERS\8470P\DOCUMENTS\DIT\YEAR 2\DSAL\CA2\DEBUG\CA2.EXE
C:\USERS\8470P\DOCUMENTS\DIT\YEAR 2\DSAL\CA2\CA2\DEBUG\CA2.EXE.INTERMEDIATE.MANIFEST
C:\USERS\8470P\DOCUMENTS\DIT\YEAR 2\DSAL\CA2\DEBUG\CA2.PDB
^C:\USERS\8470P\DOCUMENTS\DSAL-CA2\CA2\CA2\DEBUG\CA2.EXE.EMBED.MANIFEST.RES|C:\USERS\8470P\DOCUMENTS\DSAL-CA2\CA2\CA2\DEBUG\MAIN.OBJ|C:\USERS\8470P\DOCUMENTS\DSAL-CA2\CA2\CA2\DEBUG\SHOP.OBJ|C:\USERS\8470P\DOCUMENTS\DSAL-CA2\CA2\CA2\DEBUG\TOOL.OBJ|C:\USERS\8470P\DOCUMENTS\DSAL-CA2\CA2\CA2\DEBUG\WARE.OBJ
C:\USERS\8470P\DOCUMENTS\DSAL-CA2\CA2\DEBUG\CA2.ILK
C:\USERS\8470P\DOCUMENTS\DSAL-CA2\CA2\DEBUG\CA2.EXE
C:\USERS\8470P\DOCUMENTS\DSAL-CA2\CA2\CA2\DEBUG\CA2.EXE.INTERMEDIATE.MANIFEST
C:\USERS\8470P\DOCUMENTS\DSAL-CA2\CA2\DEBUG\CA2.PDB
